<svg xmlns="http://www.w3.org/2000/svg" width="79.808" height="95.089" viewBox="0 0 79.808 95.089">
  <g id="certificate" transform="translate(-0.062)">
    <path id="Path" d="M23.022,9.209H1.535A1.535,1.535,0,0,1,0,7.674V1.535A1.535,1.535,0,0,1,1.535,0H23.022a1.536,1.536,0,0,1,1.535,1.535V7.674A1.536,1.536,0,0,1,23.022,9.209Z" transform="translate(18.479 12.278)" fill="#b3d9f0"/>
    <path id="Path-2" data-name="Path" d="M0,0H16.882V3.07H0Z" transform="translate(12.34 26.091)" fill="#425e70"/>
    <path id="Path-3" data-name="Path" d="M0,0H16.882V3.07H0Z" transform="translate(32.292 26.091)" fill="#425e70"/>
    <path id="Path-4" data-name="Path" d="M0,0H16.882V3.07H0Z" transform="translate(12.34 38.369)" fill="#425e70"/>
    <path id="Path-5" data-name="Path" d="M0,0H16.882V3.07H0Z" transform="translate(32.292 38.369)" fill="#425e70"/>
    <path id="Path-6" data-name="Path" d="M49.113,39.9V7.674H47.578a6.145,6.145,0,0,1-6.139-6.139V0H7.674V1.535A6.145,6.145,0,0,1,1.535,7.674H0V59.856H1.535A6.145,6.145,0,0,1,7.674,66V67.53h30.7V64.46H10.616A9.235,9.235,0,0,0,3.07,56.914v-46.3A9.235,9.235,0,0,0,10.616,3.07H38.5a9.235,9.235,0,0,0,7.546,7.546V39.9Z" transform="translate(6.201 6.139)" fill="#425e70"/>
    <path id="Path-7" data-name="Path" d="M12.313,0,9.373.881,12.514,11.35,8.563,9.375l-3.47,3.47L2.976,4.377,0,5.122,3.43,18.849,9.168,13.11,17.5,17.274Z" transform="translate(60.261 76.24)" fill="#425e70"/>
    <path id="Shape" d="M56.084,95.089h0l-5.737-5.738-8.328,4.164L46.13,79.808H0V0H61.391V44.509h-3.07v-33.9A9.207,9.207,0,0,1,50.785,3.07H10.606A9.207,9.207,0,0,1,3.07,10.606V69.2a9.205,9.205,0,0,1,7.536,7.536H47.049l.151-.5,2.94.881L47,87.589l3.95-1.975,3.47,3.469,2.118-8.465,2.975.743L56.084,95.087ZM3.07,72.353v4.386H7.456A6.123,6.123,0,0,0,3.07,72.353ZM53.935,3.07a6.121,6.121,0,0,0,4.386,4.386V3.07H53.935ZM3.07,3.07V7.456A6.118,6.118,0,0,0,7.456,3.07Z" transform="translate(0.062 0)" fill="#425e70"/>
    <path id="Path-8" data-name="Path" d="M0,0H16.882V3.07H0Z" transform="translate(12.34 44.508)" fill="#425e70"/>
    <path id="Path-9" data-name="Path" d="M0,0H16.882V3.07H0Z" transform="translate(32.292 44.508)" fill="#425e70"/>
    <path id="Path-10" data-name="Path" d="M0,0H36.835V3.07H0Z" transform="translate(12.34 32.23)" fill="#425e70"/>
    <path id="Path-11" data-name="Path" d="M0,0H33.238V3.07H0Z" transform="translate(12.34 50.647)" fill="#425e70"/>
    <path id="Path-12" data-name="Path" d="M19.952,39.9a6.482,6.482,0,0,1-4.786-2.093,6.517,6.517,0,0,1-8.289-4.784,6.517,6.517,0,0,1-4.784-8.289,6.518,6.518,0,0,1,0-9.571A6.517,6.517,0,0,1,6.877,6.877a6.517,6.517,0,0,1,8.289-4.784,6.518,6.518,0,0,1,9.571,0,6.517,6.517,0,0,1,8.289,4.784,6.516,6.516,0,0,1,4.783,8.289,6.516,6.516,0,0,1,0,9.571,6.516,6.516,0,0,1-4.783,8.289,6.517,6.517,0,0,1-8.289,4.784A6.482,6.482,0,0,1,19.952,39.9Z" transform="translate(39.966 42.974)" fill="#b3d9f0"/>
    <path id="Shape-2" data-name="Shape" d="M13.813,27.625A13.813,13.813,0,1,1,27.625,13.813,13.828,13.828,0,0,1,13.813,27.625Zm0-24.556A10.743,10.743,0,1,0,24.556,13.813,10.755,10.755,0,0,0,13.813,3.07Z" transform="translate(46.105 49.113)" fill="#425e70"/>
    <path id="Shape-3" data-name="Shape" d="M7.674,14.449h0L1.4,8.177A4.79,4.79,0,0,1,4.79,0,4.853,4.853,0,0,1,7.674.965,4.848,4.848,0,0,1,10.558,0a4.79,4.79,0,0,1,3.387,8.177l-6.27,6.27ZM4.79,3.07A1.721,1.721,0,0,0,3.573,6.008l4.1,4.1,4.1-4.1A1.721,1.721,0,0,0,9.34,3.573L7.674,5.24,6.008,3.573A1.737,1.737,0,0,0,4.79,3.07Z" transform="translate(52.244 56.787)" fill="#425e70"/>
  </g>
</svg>
