<svg id="responsibility" xmlns="http://www.w3.org/2000/svg" width="36" height="36" viewBox="0 0 36 36">
  <path id="Path" d="M.7,1.406a.7.7,0,1,1,.7-.7.7.7,0,0,1-.7.7Z" transform="translate(8.543 33.885)" fill="#425e70"/>
  <path id="Path-2" data-name="Path" d="M.7,1.412A.7.7,0,0,1,.225.193L.232.187a.7.7,0,0,1,.956,1.032l-.006.005A.7.7,0,0,1,.7,1.412Z" transform="translate(2.267 25.587)"/>
  <path id="Path-3" data-name="Path" d="M21,8.385h5.74V0H14.855a8.771,8.771,0,0,0-4.2,1.072L1.081,6.3A2.28,2.28,0,0,0,0,7.6a2.29,2.29,0,0,0,2.524.315L9.645,4.348,12.9,4.129a2,2,0,0,0,.225.209l2.938,2.328A7.95,7.95,0,0,0,21,8.385Z" transform="translate(3.46 3.85)" fill="#b3d9f0"/>
  <path id="Path-4" data-name="Path" d="M5.74,0H0V8.428H12.235a8.771,8.771,0,0,0,4.2-1.072L26.01,2.131A2.278,2.278,0,0,0,27,1.054,2.29,2.29,0,0,0,24.216.469L17.094,4.037l-3.254.219a1.95,1.95,0,0,0-.225-.209L10.677,1.719A7.95,7.95,0,0,0,5.74,0Z" transform="translate(5.801 23.766)" fill="#b3d9f0"/>
  <path id="Path-5" data-name="Path" d="M0,0H5.1V9.258H0" transform="translate(0.703 23.063)" fill="#b3d9f0"/>
  <path id="Path-6" data-name="Path" d="M5.1,9.088H0V0H5.1" transform="translate(30.199 3.85)" fill="#b3d9f0"/>
  <path id="Path-7" data-name="Path" d="M5.856,2.749A2.715,2.715,0,0,0,3.176,0,2.642,2.642,0,0,0,1.229.86,2.707,2.707,0,0,0,.62.367,3.621,3.621,0,0,0,0,2.4C0,3.747,1.422,5.337,2.883,6.617,4.211,5.57,5.856,4.017,5.856,2.749Z" transform="translate(16.771 14.622)" fill="#b3d9f0"/>
  <path id="Path-8" data-name="Path" d="M18.278.319,11.157,3.888a.7.7,0,0,0,.63,1.257l7.121-3.569a1.586,1.586,0,0,1,1.471,2.811L10.806,9.613a8.09,8.09,0,0,1-3.865.986H.7A.7.7,0,0,0,.7,12H6.941a9.5,9.5,0,0,0,4.539-1.158l9.573-5.225a2.993,2.993,0,0,0-2.775-5.3Z" transform="translate(11.423 23.286)" fill="#425e70"/>
  <path id="Path-9" data-name="Path" d="M11.541,2.109a7.275,7.275,0,0,1,4.5,1.566L18.98,6A1.228,1.228,0,0,1,17.537,7.99L13.783,5.5a.7.7,0,0,0-.778,1.171L16.76,9.161A2.634,2.634,0,0,0,19.853,4.9L16.914,2.574A8.687,8.687,0,0,0,11.541.7H6.5A.7.7,0,0,0,5.8,0H.7a.7.7,0,0,0,0,1.406H5.1V12.234H.7a.7.7,0,0,0,0,1.406H5.8a.7.7,0,0,0,.7-.7V2.109Z" transform="translate(0 22.359)" fill="#425e70"/>
  <path id="Path-10" data-name="Path" d="M20.149,12.234H15.755V1.406h4.395a.7.7,0,0,0,0-1.406h-5.1a.7.7,0,0,0-.7.7V11.531H9.311a7.275,7.275,0,0,1-4.5-1.566L1.873,7.637A1.228,1.228,0,0,1,3.315,5.651L7.069,8.144a.7.7,0,0,0,.778-1.171L4.093,4.48A2.634,2.634,0,0,0,.027,6.3,2.609,2.609,0,0,0,1,8.739l2.939,2.328a8.687,8.687,0,0,0,5.373,1.87h5.037a.7.7,0,0,0,.7.7h5.1a.7.7,0,0,0,0-1.406Z" transform="translate(15.148)" fill="#425e70"/>
  <path id="Path-11" data-name="Path" d="M.7,1.406A.708.708,0,0,0,1.2,1.2a.7.7,0,0,0,0-.995.7.7,0,0,0-.994,0,.7.7,0,0,0,0,.995A.708.708,0,0,0,.7,1.406Z" transform="translate(26.297 0.709)" fill="#425e70"/>
  <path id="Path-12" data-name="Path" d="M2.989,12a2.993,2.993,0,0,0,1.344-.319l7.121-3.569a.7.7,0,0,0-.63-1.257L3.7,10.428A1.586,1.586,0,0,1,2.232,7.617l9.573-5.225a8.09,8.09,0,0,1,3.865-.986h6.34a.7.7,0,0,0,0-1.406H15.67a9.5,9.5,0,0,0-4.539,1.158L1.558,6.383A2.994,2.994,0,0,0,2.989,12Z" transform="translate(1.966 0.709)" fill="#425e70"/>
  <path id="Path-13" data-name="Path" d="M.234.184.228.19a.7.7,0,0,0,.95,1.037l.006-.006A.7.7,0,0,0,.234.184Z" transform="translate(32.626 8.694)" fill="#425e70"/>
  <path id="Shape" d="M5.33,9.211A.7.7,0,0,1,4.954,9.1a22.563,22.563,0,0,1-2.4-1.792C.836,5.825,0,4.563,0,3.452A3.422,3.422,0,0,1,3.383,0,3.37,3.37,0,0,1,5.33.63,3.372,3.372,0,0,1,7.277,0a3.422,3.422,0,0,1,3.383,3.452c0,1.11-.837,2.372-2.558,3.857A22.176,22.176,0,0,1,5.706,9.1.7.7,0,0,1,5.33,9.211Zm-1.947-7.8a1.93,1.93,0,0,0-1.4.6,2.067,2.067,0,0,0-.579,1.447A3.686,3.686,0,0,0,2.715,5.54,18.13,18.13,0,0,0,5.33,7.668C6.906,6.606,9.254,4.607,9.254,3.452A2.015,2.015,0,0,0,7.277,1.406a1.924,1.924,0,0,0-1.43.634.7.7,0,0,1-1.034,0A1.927,1.927,0,0,0,3.383,1.406Z" transform="translate(12.67 13.919)" fill="#425e70"/>
</svg>
