<svg xmlns="http://www.w3.org/2000/svg" width="13.333" height="13.536" viewBox="0 0 13.333 13.536">
  <path id="rss" d="M13.333,13.536H10.555A10.476,10.476,0,0,0,7.5,5.922,10.161,10.161,0,0,0,0,2.82V0A13.122,13.122,0,0,1,5.117.991a13.308,13.308,0,0,1,4.31,2.974,13.531,13.531,0,0,1,2.929,4.376,13.678,13.678,0,0,1,.977,5.194Zm-4.444,0H6.111A6.173,6.173,0,0,0,4.444,9.024,5.979,5.979,0,0,0,0,7.332V4.512A8.528,8.528,0,0,1,6.268,7.173a8.788,8.788,0,0,1,2.622,6.362Zm-6.945,0a1.863,1.863,0,0,1-1.371-.581A1.921,1.921,0,0,1,0,11.562a1.9,1.9,0,0,1,.555-1.375,1.9,1.9,0,0,1,1.389-.6,1.864,1.864,0,0,1,1.372.582,1.977,1.977,0,0,1,0,2.785A1.864,1.864,0,0,1,1.944,13.536Z" transform="translate(0 0)" fill="#fff"/>
</svg>
